{
  "//comment1": "This is the whole configuration of the GeoGirafe Viewer.",
  "//comment2": "Here, you can set the entries according to your environment.",
  "general": {
    "//comment1": "Will be used when formating numbers or dates",
    "locale": "fr-CH"
  },
  "languages": {
    "//comment1": "List of languages with their corresponding translation-file.",
    "fr": "https://map.cartoriviera.ch/static/dummy/fr.json",
    "//comment2": "Default language",
    "defaultLanguage": "fr"
  },
  "themes": {
    "//comment1": "Link to the GeoMapFish-Compliant Themes.json",
    "url": "https://map.cartoriviera.ch/themes?background=background&interface=desktop",
    "//comment2": "Name of the default theme. It will be automatically loaded when the application starts",
    "defaultTheme": "cadastre"
  },
  "basemaps": {
    "//comment1": "Display the Basemap control or not",
    "show": true,
    "//comment2": "Name of the default basemap.",
    "defaultBasemap": "plan_cadastral",
    "//comment3": "special basemaps that can be activated or not",
    "OSM": true,
    "SwissTopoVectorTiles": true
  },
  "treeview": {
    "useCheckboxes": true,
    "useLegendIcons": true,
    "hideLegendWhenLayerIsDeactivated": true,
    "defaultIconSize": {
      "width": "20",
      "height": "20"
    }
  },
  "search": {
    "//comment1": "Link to the GeoMapFish-Compliant Search Service",
    "//comment2": "The muster <###SEARCHTERM###> will be replaced by the search-term",
    "url": "https://map.cartoriviera.ch/search?limit=90&partitionlimit=15&interface=desktop&query=###SEARCHTERM###"
  },
  "print": {
    "//comment1": "Link to the GeoMapFish-Compliant Print Service",
    "url": "https://map.cartoriviera.ch/printproxy/",
    "//comment2": "The print layout selected by default",
    "defaultLayout": "1) A4 paysage"
  },
  "selection": {
    "defaultFillColor": "#ff66667f",
    "defaultStrokeColor": "#ff3333",
    "defaultStrokeWidth": 4,
    "defaultFocusFillColor": "#ff33337f",
    "defaultFocusStrokeColor": "#ff0000",
    "defaultFocusStrokeWidth": 4
  },
  "redlining": {
    "defaultFillColor": "#6666ff7f",
    "defaultStrokeColor": "#0000ff",
    "defaultStrokeWidth": 2,
    "defaultTextSize": 12,
    "defaultFont": "Arial"
  },
  "projections": {
    "//comment1": "List of projections with their corresponding abbreviation",
    "EPSG:3857": "W-M",
    "EPSG:4326": "WGS84",
    "EPSG:2056": "MN95"
  },
  "map": {
    "srid": "EPSG:2056",
    "startZoom": "1",
    "startPosition": "2556000,1145000",
    "maxExtent": "2535000,1130000,2580000,1160000",
    "scales": [200000, 75000, 40000, 20000, 10000, 7500, 5000, 3500, 2000, 1000, 500, 200, 100],
    "constraintScales": true,
    "showScaleLine": true
  },
  "map3d": {
    "terrainUrl": "https://terrain100.geo.admin.ch/1.0.0/ch.swisstopo.terrain.3d/",
    "tilesetsUrls": ["https://uzuflycesium.s3.amazonaws.com/Vevey/Mesh/Vevey_Cesium_2023-2/Scene/Vevey_Cesium_2023.json"]
  }
}
